1	-	0.0	0
1	.41	0.0	0
1	.69	0.0	0
1	1-2-1	0.0	0
1	1/1	0.0	0
1	12.67	0.0	0
2	18o	0.0760839110995	0
1	1958-1997	0.0	0
1	1oc	0.0	0
1	2.77	0.0	0
1	20-30-year	0.0	0
1	2002-2003	0.0	0
1	2003-2005	0.0	0
1	2004-2005	0.0	0
1	50-100	0.0	0
1	acknowedged	0.0	0
1	aircraft-based	0.0	0
1	aren't	0.0	0
1	atlantic-wide	0.0	0
2	baroclinic	0.0760839110995	0
1	bartlo	0.0	0
1	basin-wide	0.0	0
1	behaviour/stationary	0.0	0
2	benestad	0.0760839110995	0
1	bosart	0.0	0
2	cannot	0.0760839110995	0
1	cloud-radiation	0.0	0
1	co2-induced	0.0	0
1	conlusions	0.0	0
2	connolley	0.0760839110995	0
1	contriversial	0.0	0
1	cumulonimbus	0.0	0
1	decade-to-decade	0.0	0
1	degc	0.0	0
1	degc/decade	0.0	0
1	depeendency	0.0	0
2	dew-point	0.0760839110995	0
1	diag	0.0	0
1	downdraft	0.0	0
3	downdrafts	0.120590146001	0
1	dtr	0.0	0
1	earth's	0.0	0
1	endeavor	0.0	0
1	energy/heat	0.0	0
1	enso	0.0	0
2	eyewall	0.0760839110995	0
1	eyewalls	0.0	0
1	fance	0.0	0
2	gcm	0.0760839110995	0
1	gedzelman	0.0	0
1	geng	0.0	0
1	gettleman	0.0	0
2	gfdl	0.0760839110995	0
1	ginis	0.0	0
1	gobal	0.0	0
3	gray's	0.120590146001	0
2	haarsma	0.0760839110995	0
1	humidify	0.0	0
1	hurricaneprotection.com	0.0	0
1	hurricanes.r	0.0	0
1	i'm	0.0	0
1	iceland/norwegian	0.0	0
1	idag	0.0	0
4	iid	0.152167822199	0
1	iid-rule	0.0	0
5	iid-test	0.176661370751	0
1	indean	0.0	0
2	inter-annual	0.0760839110995	0
2	inter-decadal	0.0760839110995	0
1	khain	0.0	0
1	lakebeds	0.0	0
4	landfalling	0.152167822199	0
1	liu's	0.0	0
1	malmquist	0.0	0
1	manabe	0.0	0
1	maximum/minimum	0.0	0
8	mid-latitude	0.228251733299	0
1	minimum/maximum	0.0	0
2	modeling	0.0760839110995	0
1	molinari	0.0	0
1	monte-carlo	0.0	0
1	nasa's	0.0	0
1	newly-corrected	0.0	0
1	ninas	0.0	0
2	ninos	0.0760839110995	0
1	noaa's	0.0	0
1	non-iid	0.0	0
4	null-hypothesis	0.152167822199	0
1	oft-stated	0.0	0
3	paleotempestology	0.120590146001	0
11	pdi	0.263207087727	0
1	physically-based	0.0	0
2	physics-based	0.0760839110995	0
1	pole-equator	0.0	0
1	pole-to-equator	0.0	0
2	post-1970	0.0760839110995	0
1	post-1973	0.0	0
2	pre-1970	0.0760839110995	0
1	preprint	0.0	0
1	princeton/gfdl	0.0	0
1	r-script	0.0	0
1	radiosonde	0.0	0
1	record-/extreme-events	0.0	0
4	record-event	0.152167822199	0
10	record-events	0.25274528185	0
5	record-high	0.176661370751	0
1	record-highs	0.0	0
1	record-low	0.0	0
1	record-number	0.0	0
1	record-statistics	0.0	0
1	reoccurring	0.0	0
1	reproducability	0.0	0
1	sandbars	0.0	0
1	satellite-based	0.0	0
1	schade	0.0	0
1	sea-ice	0.0	0
1	severities	0.0	0
1	slingerland	0.0	0
4	ssts	0.152167822199	0
1	storm's	0.0	0
1	storminess	0.0	0
1	sugi	0.0	0
1	trenberth	0.0	0
1	unraveled	0.0	0
1	up-down	0.0	0
6	vapor	0.1966740571	0
1	what's	0.0	0
1	wmo	0.0	0
1	year's	0.0	0
1	zwiers	0.0	0
1	~1	0.0	0
1	~27	0.0	0
2	~27deg	0.0760839110995	0
9	cyclogenesis	0.241180292002	-0.69314718056
3	favor	0.120590146001	-0.69314718056
6	gcms	0.1966740571	-0.69314718056
4	knutson	0.152167822199	-0.69314718056
4	landsea	0.152167822199	-0.69314718056
4	tuleya	0.152167822199	-0.69314718056
1	vorticity	0.0	-0.69314718056
1	tropopause	0.0	-1.09861228867
2	near-shore	0.0760839110995	-1.38629436112
2	shelby	0.0760839110995	-1.38629436112
1	long-period	0.0	-1.60943791243
1	meridional	0.0	-1.60943791243
3	poleward	0.120590146001	-1.60943791243
1	vicinities	0.0	-1.60943791243
2	1/n	0.0760839110995	-1.79175946923
1	hoc	0.0	-1.79175946923
1	kharin	0.0	-1.79175946923
2	cyclonic	0.0760839110995	-1.94591014906
1	fearn	0.0	-1.94591014906
2	isotherm	0.0760839110995	-1.94591014906
13	tcs	0.281543926544	-1.94591014906
1	tropospheric	0.0	-1.94591014906
1	0.67	0.0	-2.07944154168
1	30-50	0.0	-2.07944154168
1	endpoints	0.0	-2.07944154168
1	pre-1973	0.0	-2.07944154168
1	ice-cap	0.0	-2.19722457734
1	insignificantly	0.0	-2.19722457734
11	sst	0.263207087727	-2.19722457734
7	u.s	0.213594542315	-2.19722457734
2	3400	0.0760839110995	-2.30258509299
5	noaa	0.176661370751	-2.30258509299
1	re-analysis	0.0	-2.30258509299
5	typhoons	0.176661370751	-2.30258509299
43	cyclones	0.412851445199	-2.3978952728
1	eos	0.0	-2.3978952728
1	fig.1	0.0	-2.3978952728
2	ipcc	0.0760839110995	-2.3978952728
1	monsoons	0.0	-2.3978952728
3	troposphere	0.120590146001	-2.3978952728
1	feedbacks	0.0	-2.48490664979
2	histograms	0.0760839110995	-2.48490664979
1	14c	0.0	-2.56494935746
1	1940's	0.0	-2.56494935746
1	fig.2	0.0	-2.56494935746
1	ravished	0.0	-2.56494935746
5	anthropogenic	0.176661370751	-2.63905732962
2	convective	0.0760839110995	-2.63905732962
1	nino	0.0	-2.63905732962
1	anomalously	0.0	-2.7080502011
1	climatology	0.0	-2.7080502011
1	cloudiness	0.0	-2.7080502011
1	1/3	0.0	-2.77258872224
15	2004	0.297251516752	-2.77258872224
2	5-year	0.0760839110995	-2.77258872224
1	stratigraphic	0.0	-2.77258872224
4	thermodynamic	0.152167822199	-2.77258872224
1	2800	0.0	-2.83321334406
1	moistening	0.0	-2.83321334406
1	r2	0.0	-2.83321334406
2	meteorologists	0.0760839110995	-2.8903717579
1	impacted	0.0	-2.94443897917
3	normalized	0.120590146001	-2.94443897917
1	pertains	0.0	-2.94443897917
1	sectioned	0.0	-2.94443897917
1	1/4	0.0	-2.99573227355
1	deviated	0.0	-2.99573227355
2	high-resolution	0.0760839110995	-2.99573227355
1	katrina	0.0	-3.04452243772
1	moderating	0.0	-3.04452243772
2	uncorrected	0.0760839110995	-3.04452243772
3	dynamical	0.120590146001	-3.09104245336
1	mit	0.0	-3.13549421593
1	seasonality	0.0	-3.13549421593
2	circulations	0.0760839110995	-3.17805383035
1	correlating	0.0	-3.17805383035
5	instabilities	0.176661370751	-3.17805383035
1	plaguing	0.0	-3.17805383035
4	liu	0.152167822199	-3.21887582487
2	stalactites	0.0760839110995	-3.21887582487
1	1990's	0.0	-3.25809653802
4	histogram	0.152167822199	-3.25809653802
7	tc	0.213594542315	-3.25809653802
1	26-27	0.0	-3.295836866
1	elucidated	0.0	-3.295836866
1	oceanographic	0.0	-3.295836866
1	thermally	0.0	-3.295836866
1	deducing	0.0	-3.33220451018
1	northeastern	0.0	-3.33220451018
1	spawning	0.0	-3.33220451018
4	typhoon	0.152167822199	-3.33220451018
1	2002	0.0	-3.36729582999
2	destructiveness	0.0760839110995	-3.36729582999
5	e.g	0.176661370751	-3.36729582999
4	landfall	0.152167822199	-3.40119738166
1	recast	0.0	-3.40119738166
1	couplet	0.0	-3.4657359028
2	disequilibrium	0.0760839110995	-3.4657359028
1	magnitudes	0.0	-3.4657359028
1	1980's	0.0	-3.49650756147
1	invariant	0.0	-3.55534806149
1	thunderstorms	0.0	-3.55534806149
31	cyclone	0.376934631649	-3.58351893846
1	2200	0.0	-3.61091791264
1	predictors	0.0	-3.61091791264
10	emanuel	0.25274528185	-3.63758615973
1	meteorology	0.0	-3.63758615973
1	calibrated	0.0	-3.66356164613
1	episodic	0.0	-3.66356164613
1	offsetting	0.0	-3.66356164613
9	shear	0.241180292002	-3.66356164613
1	analyzing	0.0	-3.7135720667
34	hurricanes	0.387074070536	-3.7135720667
3	chan	0.120590146001	-3.73766961828
6	i.e	0.1966740571	-3.73766961828
1	dependencies	0.0	-3.76120011569
1	simulating	0.0	-3.76120011569
1	correlates	0.0	-3.80666248977
1	diurnal	0.0	-3.80666248977
1	2003	0.0	-3.82864139649
2	intensities	0.0760839110995	-3.82864139649
2	isotope	0.0760839110995	-3.82864139649
1	ingrid	0.0	-3.87120101091
2	according	0.0760839110995	-3.89182029811
2	dissipation	0.0760839110995	-3.89182029811
1	prehistory	0.0	-3.89182029811
1	surpass	0.0	-3.89182029811
1	spawn	0.0	-3.93182563272
1	0.75	0.0	-3.97029191355
1	10000	0.0	-3.97029191355
1	intensifying	0.0	-3.97029191355
1	online	0.0	-3.97029191355
9	record-breaking	0.241180292002	-3.97029191355
3	infrared	0.120590146001	-3.98898404656
1	straddling	0.0	-4.02535169074
1	hadley	0.0	-4.04305126783
5	sediments	0.176661370751	-4.04305126783
1	donnelly	0.0	-4.06044301055
1	contradicting	0.0	-4.07753744391
1	reconstructing	0.0	-4.07753744391
4	co2	0.152167822199	-4.09434456222
1	spatially	0.0	-4.09434456222
2	cores	0.0760839110995	-4.11087386417
1	identically	0.0	-4.12713438505
1	north-south	0.0	-4.12713438505
2	easterly	0.0760839110995	-4.14313472639
1	mimicked	0.0	-4.14313472639
8	precipitation	0.228251733299	-4.14313472639
1	1/2	0.0	-4.15888308336
2	altitudes	0.0760839110995	-4.15888308336
1	carbonate	0.0	-4.15888308336
3	latitudes	0.120590146001	-4.15888308336
1	abbreviation	0.0	-4.1743872699
1	computational	0.0	-4.24849524205
2	updates	0.0760839110995	-4.24849524205
1	asymmetrical	0.0	-4.26267987704
1	broccoli	0.0	-4.26267987704
1	warms	0.0	-4.26267987704
1	2001	0.0	-4.27666611902
1	lifetimes	0.0	-4.27666611902
8	2005	0.228251733299	-4.29045944115
2	gradients	0.0760839110995	-4.34380542185
1	alabama	0.0	-4.35670882669
1	compensating	0.0	-4.35670882669
1	saturated	0.0	-4.36944785247
2	1999	0.0760839110995	-4.38202663467
1	freshwater	0.0	-4.38202663467
1	spawned	0.0	-4.38202663467
1	radial	0.0	-4.39444915467
5	simulations	0.176661370751	-4.39444915467
1	clicking	0.0	-4.4188406078
1	nascent	0.0	-4.4188406078
1	state-of-the-art	0.0	-4.43081679884
1	observatory	0.0	-4.44265125649
1	technicalities	0.0	-4.44265125649
1	sensor	0.0	-4.45434729625
4	tropics	0.152167822199	-4.45434729625
2	deepening	0.0760839110995	-4.46590811865
2	nordic	0.0760839110995	-4.46590811865
1	guesswork	0.0	-4.47733681448
1	hereafter	0.0	-4.48863636973
1	0.4	0.0	-4.53259949315
1	hinge	0.0	-4.53259949315
1	attribution	0.0	-4.56434819147
1	glacial	0.0	-4.56434819147
2	ascending	0.0760839110995	-4.5747109785
1	bermuda	0.0	-4.59511985013
1	aforementioned	0.0	-4.60517018599
2	characterize	0.0760839110995	-4.61512051684
3	sediment	0.120590146001	-4.61512051684
1	circumvent	0.0	-4.62497281328
1	disrupting	0.0	-4.64439089914
1	populated	0.0	-4.64439089914
1	freak	0.0	-4.66343909411
1	mathematically	0.0	-4.69134788223
2	simulated	0.0760839110995	-4.69134788223
7	evaporation	0.213594542315	-4.70048036579
1	diminishes	0.0	-4.70953020131
1	basins	0.0	-4.7184988713
2	tar	0.0760839110995	-4.7184988713
1	empirically	0.0	-4.72738781871
1	filtered	0.0	-4.72738781871
1	1300	0.0	-4.73619844839
1	prevails	0.0	-4.73619844839
2	cube	0.0760839110995	-4.74493212836
1	meteorological	0.0	-4.75359019111
4	correlated	0.152167822199	-4.7621739348
1	misconception	0.0	-4.7621739348
1	scrupulously	0.0	-4.77068462447
5	initiating	0.176661370751	-4.78749174278
2	perceptible	0.0760839110995	-4.78749174278
11	genesis	0.263207087727	-4.7957905456
1	tilt	0.0	-4.7957905456
3	distributions	0.120590146001	-4.80402104473
1	consequential	0.0	-4.8283137373
1	forecasting	0.0	-4.8283137373
1	kerry	0.0	-4.8283137373
1	3.7	0.0	-4.83628190695
4	simulate	0.152167822199	-4.83628190695
1	intensification	0.0	-4.8751973232
1	low-level	0.0	-4.88280192259
1	transparency	0.0	-4.88280192259
3	center	0.120590146001	-4.89034912822
3	decreases	0.120590146001	-4.89034912822
5	humid	0.176661370751	-4.89034912822
1	minded	0.0	-4.90527477844
1	prerequisite	0.0	-4.91998092583
1	24-hour	0.0	-4.92725368516
1	deduce	0.0	-4.92725368516
2	detectable	0.0760839110995	-4.92725368516
1	shrinking	0.0	-4.92725368516
1	estimating	0.0	-4.94164242261
1	95%	0.0	-4.94875989038
2	owing	0.0760839110995	-4.9558270576
1	recurrence	0.0	-4.97673374242
1	monte	0.0	-4.99043258678
1	deductions	0.0	-5.00394630595
1	scenarios	0.0	-5.0106352941
1	upturn	0.0	-5.0106352941
1	humidity	0.0	-5.01727983681
1	11%	0.0	-5.02388052085
1	yields	0.0	-5.02388052085
2	attribute	0.0760839110995	-5.03695260241
16	warming	0.304335644398	-5.03695260241
1	condensation	0.0	-5.05624580535
1	stir	0.0	-5.05624580535
2	graphs	0.0760839110995	-5.06259503303
1	halved	0.0	-5.06259503303
1	stems	0.0	-5.06259503303
2	vapour	0.0760839110995	-5.06259503303
1	longer-term	0.0	-5.06890420222
10	rainfall	0.25274528185	-5.06890420222
1	intensify	0.0	-5.07517381523
1	exhibits	0.0	-5.08140436498
2	gradient	0.0760839110995	-5.08140436498
1	smoothed	0.0	-5.08140436498
1	cooling	0.0	-5.09375020081
1	assign	0.0	-5.1059454739
1	ascent	0.0	-5.11799381242
1	climatic	0.0	-5.11799381242
1	emission	0.0	-5.11799381242
1	quantify	0.0	-5.1239639794
1	encompasses	0.0	-5.12989871492
2	simulation	0.0760839110995	-5.13579843705
1	spite	0.0	-5.13579843705
1	inward	0.0	-5.1416635565
1	prehistoric	0.0	-5.1416635565
1	contraction	0.0	-5.15905529921
3	geometric	0.120590146001	-5.15905529921
1	inhibited	0.0	-5.15905529921
1	1850	0.0	-5.16478597392
2	altitude	0.0760839110995	-5.16478597392
3	prevalence	0.120590146001	-5.17048399504
1	underlined	0.0	-5.17614973257
1	scandinavia	0.0	-5.18738580584
1	deduction	0.0	-5.20400668708
1	disputed	0.0	-5.20948615284
1	contradict	0.0	-5.21493575761
1	estimation	0.0	-5.22035582508
1	infer	0.0	-5.22035582508
1	inhibit	0.0	-5.22574667371
1	26th	0.0	-5.23644196283
1	alignment	0.0	-5.23644196283
1	entails	0.0	-5.23644196283
1	hemisphere	0.0	-5.23644196283
1	world-wide	0.0	-5.23644196283
1	click	0.0	-5.24702407216
9	fig	0.241180292002	-5.25749537203
39	hurricane	0.402134072545	-5.25749537203
1	75%	0.0	-5.2626901889
4	oceans	0.152167822199	-5.27299955856
2	polar	0.0760839110995	-5.27811465923
1	iceland	0.0	-5.28320372874
1	underestimate	0.0	-5.28320372874
2	standpoint	0.0760839110995	-5.29330482472
1	anomalies	0.0	-5.29831736655
1	arctic	0.0	-5.31811999384
1	breaches	0.0	-5.31811999384
1	filter	0.0	-5.31811999384
1	incorrectly	0.0	-5.31811999384
1	carlo	0.0	-5.32300997914
1	frequencies	0.0	-5.32300997914
1	predicts	0.0	-5.32300997914
1	underestimated	0.0	-5.33271879327
1	corrected	0.0	-5.34233425196
3	geological	0.120590146001	-5.34233425196
1	hurdle	0.0	-5.34233425196
2	doubling	0.0760839110995	-5.36129216571
1	expands	0.0	-5.36597601502
4	deviation	0.152167822199	-5.37063802813
5	spatial	0.176661370751	-5.37063802813
2	stationary	0.0760839110995	-5.37527840768
1	henceforth	0.0	-5.37989735354
1	conventionally	0.0	-5.38907172982
1	gerry	0.0	-5.39362754635
1	1916	0.0	-5.41164605186
1	updated	0.0	-5.41164605186
5	statistically	0.176661370751	-5.4161004022
1	0.5	0.0	-5.42053499927
1	variance	0.0	-5.42053499927
1	descending	0.0	-5.43372200355
1	colder	0.0	-5.43807930892
1	framed	0.0	-5.44673737167
4	graph	0.152167822199	-5.44673737167
1	scarce	0.0	-5.45103845357
1	3000	0.0	-5.45532111536
1	focuses	0.0	-5.45958551414
1	disrupt	0.0	-5.46383180503
6	predicting	0.1966740571	-5.46806014114
2	coastline	0.0760839110995	-5.47227067367
1	clusters	0.0	-5.47646355193
1	govern	0.0	-5.48063892334
1	ensuing	0.0	-5.49306144334
1	extracted	0.0	-5.49306144334
1	moisture	0.0	-5.50533153593
3	1996	0.120590146001	-5.51342874616
1	yield	0.0	-5.51745289646
7	gases	0.213594542315	-5.52545293913
1	spontaneously	0.0	-5.53733426702
4	et	0.152167822199	-5.5490760849
1	dependency	0.0	-5.55295958492
1	forecasts	0.0	-5.55295958492
1	correspond	0.0	-5.56068163102
49	storms	0.427189084629	-5.56068163102
1	characterized	0.0	-5.56834450376
2	enclosed	0.0760839110995	-5.57215403218
1	jeff	0.0	-5.57215403218
1	triggered	0.0	-5.57215403218
1	exaggerated	0.0	-5.57594910315
1	discourse	0.0	-5.5872486584
3	interactions	0.120590146001	-5.5872486584
1	shifts	0.0	-5.59098698051
1	5%	0.0	-5.5947113796
1	infancy	0.0	-5.60211882088
2	numerical	0.0760839110995	-5.60211882088
1	tails	0.0	-5.60211882088
1	thickness	0.0	-5.60947179518
1	detrimental	0.0	-5.61312810639
10	greenhouse	0.25274528185	-5.62040086572
1	ruling	0.0	-5.62040086572
1	sparse	0.0	-5.62040086572
3	cape	0.120590146001	-5.62401750619
4	decrease	0.152167822199	-5.62401750619
1	posted	0.0	-5.62762111369
10	atmospheric	0.25274528185	-5.63121178182
1	documented	0.0	-5.63478960317
1	fronts	0.0	-5.63478960317
2	hindsight	0.0760839110995	-5.63478960317
1	prevail	0.0	-5.63478960317
1	loop	0.0	-5.64190707094
1	moist	0.0	-5.64190707094
3	pillar	0.120590146001	-5.64544689764
9	correction	0.241180292002	-5.64897423816
2	dynamics	0.0760839110995	-5.64897423816
1	currents	0.0	-5.65248918027
1	dioxide	0.0	-5.65248918027
1	realistically	0.0	-5.65248918027
4	al	0.152167822199	-5.65948221576
1	exaggeration	0.0	-5.66296048014
1	outgoing	0.0	-5.66642668811
1	cycles	0.0	-5.67332326717
1	shores	0.0	-5.67332326717
7	disturbances	0.213594542315	-5.67675380227
2	analyses	0.0760839110995	-5.68017260902
1	solar	0.0	-5.68697535634
1	supplementary	0.0	-5.68697535634
2	uncertainties	0.0760839110995	-5.68697535634
2	deposits	0.0760839110995	-5.69035945432
1	zones	0.0	-5.6937321388
1	exceeds	0.0	-5.69709348651
3	omitted	0.120590146001	-5.69709348651
4	undergoing	0.152167822199	-5.70711026475
1	weigh	0.0	-5.70711026475
1	depending	0.0	-5.71042701737
1	conceivable	0.0	-5.71702770141
1	refined	0.0	-5.72031177661
1	finland	0.0	-5.72358510195
1	accompanying	0.0	-5.7333412769
5	detection	0.176661370751	-5.73979291218
1	flows	0.0	-5.74300318781
1	concluding	0.0	-5.74620319054
1	proportional	0.0	-5.74939298591
3	gray	0.120590146001	-5.75890177388
4	radiation	0.152167822199	-5.75890177388
1	30%	0.0	-5.76205138278
1	myths	0.0	-5.76205138278
1	cave	0.0	-5.76519110278
1	diameter	0.0	-5.76519110278
8	upward	0.228251733299	-5.77144112313
3	correlation	0.120590146001	-5.77455154554
8	empirical	0.228251733299	-5.78074351579
3	downward	0.120590146001	-5.7899601709
1	globe	0.0	-5.7899601709
3	pillars	0.120590146001	-5.79301360838
2	severity	0.0760839110995	-5.79909265446
1	supplement	0.0	-5.80513496892
5	+	0.176661370751	-5.80814248998
1	analytical	0.0	-5.81413053183
1	penetrate	0.0	-5.81711115996
1	minus	0.0	-5.82304589548
1	contributes	0.0	-5.82600010738
1	linear	0.0	-5.82600010738
1	sweeping	0.0	-5.82600010738
2	compares	0.0760839110995	-5.83773044717
9	speeds	0.241180292002	-5.83773044717
1	bounds	0.0	-5.84064165737
5	magnitude	0.176661370751	-5.84064165737
6	limiting	0.1966740571	-5.84932477995
3	el	0.120590146001	-5.85220247977
1	problematic	0.0	-5.8550719222
1	unrelated	0.0	-5.85793315448
2	parameters	0.0760839110995	-5.8636311756
1	variables	0.0	-5.86646805693
3	coarse	0.120590146001	-5.87211778948
1	cumulative	0.0	-5.87211778948
2	implying	0.0760839110995	-5.87493073085
1	insights	0.0	-5.87493073085
3	n	0.120590146001	-5.88332238849
6	physics	0.1966740571	-5.88332238849
2	conflicting	0.0760839110995	-5.89440283426
2	elementary	0.0760839110995	-5.89715386764
1	graphic	0.0	-5.89715386764
1	damaging	0.0	-5.89989735358
2	gulf	0.0760839110995	-5.90808293817
1	neglected	0.0	-5.90808293817
2	accounted	0.0760839110995	-5.91889385427
1	releasing	0.0	-5.91889385427
1	inconsistent	0.0	-5.92157841964
1	oppose	0.0	-5.92157841964
1	tear	0.0	-5.92425579741
1	territories	0.0	-5.92958914339
2	measurements	0.0760839110995	-5.93224518745
1	florida	0.0	-5.93489419562
1	hypothesis	0.0	-5.93753620508
1	dennis	0.0	-5.94017125272
1	injection	0.0	-5.94017125272
1	evolved	0.0	-5.95064255259
1	headlines	0.0	-5.95064255259
1	excess	0.0	-5.95324333429
1	ad	0.0	-5.95583736946
1	enhanced	0.0	-5.95583736946
2	devastating	0.0760839110995	-5.96100533962
1	1000	0.0	-5.96870755999
1	concentrates	0.0	-5.9788857649
1	deemed	0.0	-5.9788857649
1	database	0.0	-5.98141421125
2	seasonal	0.0760839110995	-5.98896141689
1	1995	0.0	-5.99146454711
3	lakes	0.120590146001	-5.99645208862
1	phenomena	0.0	-6.0112671744
1	jan	0.0	-6.01371515604
1	reasoning	0.0	-6.01371515604
3	dated	0.120590146001	-6.0161571597
1	essay	0.0	-6.0161571597
1	deposit	0.0	-6.02102334935
3	interval	0.120590146001	-6.02102334935
1	unstable	0.0	-6.02586597383
1	liquid	0.0	-6.03068526026
4	feedback	0.152167822199	-6.04263283368
1	oddly	0.0	-6.05208916892
2	indicator	0.0760839110995	-6.05443934627
1	repetition	0.0	-6.05678401323
3	disturbance	0.120590146001	-6.05912319558
2	oxygen	0.0760839110995	-6.05912319558
3	1949	0.120590146001	-6.06378520869
1	=	0.0	-6.0661080901
1	limitation	0.0	-6.070737728
3	differ	0.120590146001	-6.0730445341
2	capability	0.0760839110995	-6.07764224335
1	quote	0.0	-6.0799331951
98	tropical	0.503272995729	-6.0799331951
1	analysed	0.0	-6.08221891038
1	initiated	0.0	-6.08221891038
1	constitute	0.0	-6.09582456243
1	governing	0.0	-6.09807428217
1	rigorous	0.0	-6.09807428217
2	ranges	0.0760839110995	-6.10031895202
2	ambiguous	0.0760839110995	-6.10924758276
3	experiencing	0.120590146001	-6.10924758276
1	internationally	0.0	-6.10924758276
1	surge	0.0	-6.10924758276
2	coastal	0.0760839110995	-6.11589212548
5	destructive	0.176661370751	-6.12249280951
1	poles	0.0	-6.12468339089
1	uncommon	0.0	-6.12468339089
24	atlantic	0.348841879299	-6.13122648948
3	extremes	0.120590146001	-6.13988455223
9	occurrence	0.241180292002	-6.13988455223
3	variable	0.120590146001	-6.14203740559
1	propose	0.0	-6.14418563413
19	ocean	0.32319893929	-6.14846829592
2	carbon	0.0760839110995	-6.15060276845
5	slope	0.176661370751	-6.16331480403
3	clues	0.120590146001	-6.16541785423
1	horizontal	0.0	-6.16751649089
1	unsuitable	0.0	-6.16961073249
1	700	0.0	-6.17170059741
1	disagreement	0.0	-6.17586727011
1	parallel	0.0	-6.17586727011
13	temperatures	0.281543926544	-6.19031540585
1	norway	0.0	-6.19236248947
1	calculation	0.0	-6.19644412779
1	facilitate	0.0	-6.19847871649
2	mexico	0.0760839110995	-6.20050917404
15	pacific	0.297251516752	-6.20050917404
5	indications	0.176661370751	-6.2085900261
1	scientist	0.0	-6.2085900261
2	prior	0.0760839110995	-6.21060007702
1	reductions	0.0	-6.21060007702
1	lets	0.0	-6.23048144758
2	seasons	0.0760839110995	-6.23244801655
1	curve	0.0	-6.2363695902
2	versus	0.0760839110995	-6.2363695902
3	large-scale	0.120590146001	-6.23832462504
1	1950s	0.0	-6.24027584517
3	threshold	0.120590146001	-6.24416690066
3	probability	0.120590146001	-6.24610676548
1	trains	0.0	-6.24610676548
1	swept	0.0	-6.25382881158
2	1950	0.0760839110995	-6.25575004175
1	rises	0.0	-6.25766758788
2	symbols	0.0760839110995	-6.25958146406
1	denmark	0.0	-6.26149168432
1	lawrence	0.0	-6.26339826259
1	cease	0.0	-6.26530121274
1	comparing	0.0	-6.27664348934
3	prone	0.120590146001	-6.27664348934
1	constitutes	0.0	-6.2822667469
6	scales	0.1966740571	-6.28413416107
1	static	0.0	-6.28413416107
1	perceived	0.0	-6.28599809451
1	guess	0.0	-6.28785856016
1	ties	0.0	-6.29341927885
7	vertical	0.213594542315	-6.29894924686
1	calculations	0.0	-6.30261897574
2	worldwide	0.0760839110995	-6.30444880242
1	validity	0.0	-6.30627528695
1	enormously	0.0	-6.30809844151
2	construct	0.0760839110995	-6.31354804628
1	explicitly	0.0	-6.31354804628
1	woods	0.0	-6.31535800152
1	influences	0.0	-6.31716468675
1	lifting	0.0	-6.32435896238
5	statistical	0.176661370751	-6.32614947316
1	integrated	0.0	-6.32793678373
5	interaction	0.176661370751	-6.33150184989
2	corresponding	0.0760839110995	-6.3350542515
2	predict	0.0760839110995	-6.3350542515
5	winds	0.176661370751	-6.34035930373
1	simplicity	0.0	-6.34212141872
1	satellite	0.0	-6.34563636083
1	margin	0.0	-6.34738920966
1	percent	0.0	-6.35262939632
1	imply	0.0	-6.3561076607
1	coincidence	0.0	-6.35784226651
5	poorly	0.176661370751	-6.35957386867
1	implemented	0.0	-6.36130247757
1	grim	0.0	-6.36475075685
2	recognized	0.0760839110995	-6.36990098283
2	detect	0.0760839110995	-6.37161184723
4	lake	0.152167822199	-6.37331978958
1	dimensions	0.0	-6.3801225369
2	layers	0.0760839110995	-6.3801225369
1	tenth	0.0	-6.3801225369
3	mechanisms	0.120590146001	-6.38350663488
1	ruled	0.0	-6.38687931936
1	addressing	0.0	-6.38856140555
2	estimate	0.0760839110995	-6.38856140555
2	boundary	0.0760839110995	-6.39024066707
2	net	0.0760839110995	-6.39191711339
1	nicely	0.0	-6.39191711339
1	1960s	0.0	-6.39692965522
2	sweden	0.0760839110995	-6.40025744531
1	input	0.0	-6.40357419793
2	array	0.0760839110995	-6.40522845803
1	episode	0.0	-6.40687998607
2	signals	0.0760839110995	-6.40687998607
2	estimates	0.0760839110995	-6.40852879106
1	characteristic	0.0	-6.41181826771
1	collecting	0.0	-6.41345895717
1	researchers	0.0	-6.41509695917
1	trap	0.0	-6.41673228251
1	600	0.0	-6.41836493594
5	geographical	0.176661370751	-6.42162226781
1	lengths	0.0	-6.42810527268
1	ratio	0.0	-6.42971947804
28	frequency	0.365762364514	-6.43133108193
1	random	0.0	-6.43133108193
1	2000	0.0	-6.43775164974
6	clouds	0.1966740571	-6.43775164974
2	courtesy	0.0760839110995	-6.4393503711
1	extends	0.0	-6.44094654063
1	comparatively	0.0	-6.44254016647
1	vigorous	0.0	-6.44254016647
2	duration	0.0760839110995	-6.45204895444
6	monthly	0.1966740571	-6.45519856334
1	conclude	0.0	-6.45676965557
1	varies	0.0	-6.46146817635
7	circulation	0.213594542315	-6.4692503168
3	systematic	0.120590146001	-6.4692503168
2	controlling	0.0760839110995	-6.47079950378
1	probable	0.0	-6.47697236289
2	unusually	0.0760839110995	-6.48157712928
2	retained	0.0760839110995	-6.48463523564
1	la	0.0	-6.48768401848
1	theoretical	0.0	-6.48768401848
1	shallow	0.0	-6.48920493133
1	technically	0.0	-6.4907235345
1	smallest	0.0	-6.49978704066
1	responding	0.0	-6.50128967054
1	argues	0.0	-6.50727771239
2	likelihood	0.0760839110995	-6.51174532964
2	experiments	0.0760839110995	-6.51323011091
1	explanations	0.0	-6.51323011091
1	locations	0.0	-6.51471269087
2	illustrated	0.0760839110995	-6.51619307604
1	legitimate	0.0	-6.52209279817
2	emerging	0.0760839110995	-6.52649485957
3	tracks	0.120590146001	-6.53087762773
1	bell	0.0	-6.53233429222
1	admitted	0.0	-6.53378883793
1	affects	0.0	-6.53378883793
2	strongest	0.0760839110995	-6.53378883793
1	currency	0.0	-6.53524127101
1	supports	0.0	-6.53524127101
1	resolve	0.0	-6.54247196051
1	derived	0.0	-6.54534966033
1	borne	0.0	-6.54821910276
2	distributed	0.0760839110995	-6.55250788703
1	guarantee	0.0	-6.55393340403
1	broader	0.0	-6.55819780281
1	continent	0.0	-6.56385552653
12	observations	0.2727579682	-6.57786135772
1	thorough	0.0	-6.57925121201
36	intensity	0.393348114201	-6.58340922216
2	measured	0.0760839110995	-6.58340922216
1	imposed	0.0	-6.58479139239
1	dimension	0.0	-6.58617165485
1	strike	0.0	-6.58617165485
1	diverse	0.0	-6.5903010482
2	aircraft	0.0760839110995	-6.59578051396
9	increases	0.241180292002	-6.59850902861
10	trends	0.25274528185	-6.59850902861
2	relate	0.0760839110995	-6.59987049921
3	layer	0.120590146001	-6.6039438246
1	doubtful	0.0	-6.6080006253
1	insight	0.0	-6.6080006253
1	accuracy	0.0	-6.60934924317
1	plain	0.0	-6.61204103483
2	mature	0.0760839110995	-6.6147256002
1	studied	0.0	-6.6147256002
1	cloud	0.0	-6.62273632395
1	compare	0.0	-6.62273632395
2	implies	0.0760839110995	-6.62273632395
1	summary	0.0	-6.62273632395
1	mild	0.0	-6.62804137618
2	g	0.0760839110995	-6.62936325344
3	rightly	0.120590146001	-6.6320017774
1	waters	0.0	-6.63331843328
1	controls	0.0	-6.63594655569
3	m	0.120590146001	-6.64248680137
1	variation	0.0	-6.64639051485
1	believing	0.0	-6.64768837356
1	cool	0.0	-6.64898455002
4	index	0.152167822199	-6.65286302935
1	partially	0.0	-6.65286302935
1	posts	0.0	-6.65286302935
2	waves	0.0760839110995	-6.66057514984
7	stable	0.213594542315	-6.66313269599
1	intensive	0.0	-6.66440902035
5	favourable	0.176661370751	-6.66568371778
3	1993	0.120590146001	-6.66695679243
6	minimum	0.1966740571	-6.66695679243
1	falls	0.0	-6.66822824842
3	underlying	0.120590146001	-6.66822824842
2	reveals	0.0760839110995	-6.67203294546
1	relation	0.0	-6.67329796777
2	1970	0.0760839110995	-6.67456139181
1	combined	0.0	-6.67708346125
1	responses	0.0	-6.68210859745
1	reflected	0.0	-6.68710860787
2	examined	0.0760839110995	-6.69579891706
1	partial	0.0	-6.69703424767
5	signal	0.176661370751	-6.70073110955
1	distinguish	0.0	-6.701960366
32	storm	0.380419555498	-6.70318811324
21	global	0.334184688316	-6.70808408385
1	albeit	0.0	-6.70930434026
1	proceed	0.0	-6.70930434026
1	computers	0.0	-6.71052310945
1	resulting	0.0	-6.71174039506
1	stated	0.0	-6.71659477352
1	arise	0.0	-6.71901315439
2	define	0.0760839110995	-6.72383244082
1	instance	0.0	-6.72383244082
1	positively	0.0	-6.72383244082
1	complicated	0.0	-6.72743172485
1	push	0.0	-6.72862861308
3	resolution	0.120590146001	-6.73101810048
1	recall	0.0	-6.73221070647
2	affecting	0.0760839110995	-6.73340189184
6	observed	0.1966740571	-6.73459165997
3	chris	0.120590146001	-6.74288063579
1	surrounding	0.0	-6.74758652683
1	critics	0.0	-6.75693238925
2	furthermore	0.0760839110995	-6.75693238925
1	usa	0.0	-6.75693238925
1	p	0.0	-6.76734312527
1	explore	0.0	-6.76964197685
3	performed	0.120590146001	-6.77078942391
4	sample	0.152167822199	-6.77078942391
2	topic	0.0760839110995	-6.77193555584
1	controversial	0.0	-6.77422388636
1	remarkably	0.0	-6.77536609094
4	variations	0.152167822199	-6.77536609094
1	1975	0.0	-6.77878489769
1	faster	0.0	-6.78219205601
2	percentage	0.0760839110995	-6.78219205601
1	remainder	0.0	-6.7833252006
3	uncertainty	0.120590146001	-6.7833252006
1	earliest	0.0	-6.78445706264
1	loose	0.0	-6.78445706264
2	cycle	0.0760839110995	-6.78558764501
1	column	0.0	-6.79122146273
27	temperature	0.361770438003	-6.79234442747
1	acts	0.0	-6.79458658088
1	shift	0.0	-6.79458658088
1	simultaneously	0.0	-6.79905586206
2	dominant	0.0760839110995	-6.80572255342
1	offers	0.0	-6.80572255342
4	considerations	0.152167822199	-6.81234509418
1	noticed	0.0	-6.81234509418
1	artificial	0.0	-6.81783057145
2	causes	0.0760839110995	-6.81892406528
1	assuming	0.0	-6.82437367004
1	refer	0.0	-6.82437367004
3	indian	0.120590146001	-6.82546003626
1	claiming	0.0	-6.82871207164
1	institution	0.0	-6.82871207164
2	mechanism	0.0760839110995	-6.82979373751
5	regions	0.176661370751	-6.83087423465
1	valid	0.0	-6.83733281469
1	confirm	0.0	-6.83840520085
1	identical	0.0	-6.84268328224
1	talked	0.0	-6.84268328224
1	lifetime	0.0	-6.84800527458
3	observation	0.120590146001	-6.84800527458
1	border	0.0	-6.84906628263
1	fixed	0.0	-6.84906628263
2	indicates	0.0760839110995	-6.85329909319
1	argued	0.0	-6.85540879861
13	statistics	0.281543926544	-6.85646198459
2	improvements	0.0760839110995	-6.85856503479
2	amounts	0.0760839110995	-6.85961490365
2	occurred	0.0760839110995	-6.86589107488
1	origin	0.0	-6.86693328446
1	principal	0.0	-6.86693328446
2	mark	0.0760839110995	-6.87109129461
1	india	0.0	-6.87316383421
3	addition	0.120590146001	-6.87626461189
32	trend	0.380419555498	-6.87935580446
1	assess	0.0	-6.88038408219
3	japan	0.120590146001	-6.882437471
1	categories	0.0	-6.88448665204
1	losses	0.0	-6.88959130835
2	reducing	0.0760839110995	-6.89162589705
1	defined	0.0	-6.8936563546
1	transfer	0.0	-6.8936563546
1	drop	0.0	-6.90173720666
1	match	0.0	-6.90173720666
1	andrew	0.0	-6.90274273716
2	regarding	0.0760839110995	-6.90274273716
2	driving	0.0760839110995	-6.90775527898
1	rely	0.0	-6.90775527898
4	decades	0.152167822199	-6.91075078796
1	representing	0.0	-6.91274282049
2	barely	0.0760839110995	-6.91473089272
1	structures	0.0	-6.91770560984
1	advanced	0.0	-6.91968384985
1	thereby	0.0	-6.92067150425
1	notion	0.0	-6.92264389148
1	moreover	0.0	-6.92461239605
4	formation	0.152167822199	-6.92951677076
1	traditionally	0.0	-6.93342302573
1	characteristics	0.0	-6.93537044602
1	sets	0.0	-6.93537044602
1	produces	0.0	-6.93731408122
6	maximum	0.1966740571	-6.94022246912
1	1980	0.0	-6.94119005507
1	environmental	0.0	-6.94408720823
1	framework	0.0	-6.94505106373
1	reveal	0.0	-6.94697599214
1	error	0.0	-6.94889722231
4	ice	0.152167822199	-6.95081476844
2	leads	0.0760839110995	-6.9517721644
8	processes	0.228251733299	-6.95272864462
3	reliable	0.120590146001	-6.95272864462
1	motion	0.0	-6.95368421087
1	tends	0.0	-6.95368421087
1	dropped	0.0	-6.9584483933
1	approximately	0.0	-6.95939851213
2	experienced	0.0760839110995	-6.95939851213
1	content	0.0	-6.96224346427
6	related	0.1966740571	-6.96224346427
1	sites	0.0	-6.9697906699
1	represented	0.0	-6.97914527507
2	interpretation	0.0760839110995	-6.98100574072
1	wave	0.0	-6.98193467716
2	efficiency	0.0760839110995	-6.98378996526
1	pushing	0.0	-6.99209642742
1	raw	0.0	-6.99209642742
4	eastern	0.152167822199	-6.99393297522
49	climate	0.427189084629	-6.99850964225
2	noted	0.0760839110995	-7.0021559544
3	tendency	0.120590146001	-7.0021559544
2	presentation	0.0760839110995	-7.00488198971
2	recorded	0.0760839110995	-7.00578901925
2	limits	0.0760839110995	-7.00669522684
1	expansion	0.0	-7.01211529431
2	primary	0.0760839110995	-7.01211529431
1	author	0.0	-7.01660968389
1	literally	0.0	-7.01660968389
3	tests	0.120590146001	-7.01660968389
1	pool	0.0	-7.01929665372
1	considering	0.0	-7.02019070831
1	determine	0.0	-7.02019070831
1	frequent	0.0	-7.02019070831
1	developing	0.0	-7.02108396429
2	northern	0.0760839110995	-7.02286808608
5	category	0.176661370751	-7.0264268087
1	modest	0.0	-7.0264268087
1	turns	0.0	-7.02731451404
2	southern	0.0760839110995	-7.02820143206
2	so-called	0.0760839110995	-7.02997291171
1	examine	0.0	-7.03085747612
1	potentially	0.0	-7.03085747612
1	core	0.0	-7.03174125876
1	publication	0.0	-7.03262426103
3	literature	0.120590146001	-7.03438792992
2	etc	0.0760839110995	-7.03526859928
7	intense	0.213594542315	-7.03614849375
8	consistent	0.228251733299	-7.03702761469
2	referred	0.0760839110995	-7.03790596345
5	1992	0.176661370751	-7.03878354139
1	agents	0.0	-7.03966034986
1	assessment	0.0	-7.04053639022
1	australia	0.0	-7.04577657688
1	experts	0.0	-7.04664727785
5	technique	0.176661370751	-7.04664727785
2	lie	0.0760839110995	-7.04751722136
1	represent	0.0	-7.04751722136
1	believed	0.0	-7.05185562296
1	wealth	0.0	-7.05272104923
2	discussions	0.0760839110995	-7.05444965813
1	roughly	0.0	-7.05875815252
3	flow	0.120590146001	-7.06133436691
3	occur	0.120590146001	-7.06390396147
3	26	0.120590146001	-7.06475902779
8	indication	0.228251733299	-7.0656133636
11	models	0.263207087727	-7.0656133636
1	reduction	0.0	-7.06902342658
1	accompanied	0.0	-7.07242190054
1	continuing	0.0	-7.07242190054
1	negative	0.0	-7.07326971746
3	scientific	0.120590146001	-7.0741168162
4	historical	0.152167822199	-7.07496319797
4	relative	0.152167822199	-7.07665381544
1	claims	0.0	-7.08002649992
4	limit	0.152167822199	-7.08002649992
2	argue	0.0760839110995	-7.08170858611
3	concentration	0.120590146001	-7.08254856936
1	assume	0.0	-7.08673793451
1	depth	0.0	-7.08673793451
1	hole	0.0	-7.08757370556
2	sufficiently	0.0760839110995	-7.08757370556
2	1991	0.0760839110995	-7.08840877868
4	e	0.152167822199	-7.08840877868
1	involves	0.0	-7.08840877868
1	laws	0.0	-7.08840877868
6	understood	0.1966740571	-7.09090982208
3	suggesting	0.120590146001	-7.0917421151
2	significantly	0.0760839110995	-7.09257371597
9	increased	0.241180292002	-7.09423484592
5	long-term	0.176661370751	-7.09754885061
1	relationships	0.0	-7.09920174355
1	spending	0.0	-7.10496544827
3	1987	0.120590146001	-7.10987946307
2	definition	0.0760839110995	-7.11069612298
1	reading	0.0	-7.11069612298
1	200	0.0	-7.11232744471
1	28	0.0	-7.11314210871
2	consequence	0.0760839110995	-7.11314210871
1	distinct	0.0	-7.11314210871
1	alternative	0.0	-7.12125245324
1	examination	0.0	-7.1236727852
1	patterns	0.0	-7.12769369935
1	1988	0.0	-7.13249755166
2	regional	0.0760839110995	-7.13648320859
2	respond	0.0760839110995	-7.13648320859
7	values	0.213594542315	-7.13727843726
2	fewer	0.0760839110995	-7.13966033596
1	divided	0.0	-7.1404530431
10	season	0.25274528185	-7.1404530431
4	average	0.152167822199	-7.14124512235
1	represents	0.0	-7.1436176027
1	procedure	0.0	-7.145196135
4	track	0.152167822199	-7.14598446771
1	establishment	0.0	-7.14677217945
1	finds	0.0	-7.14755927119
1	reaching	0.0	-7.14755927119
1	considerably	0.0	-7.14913159856
1	drive	0.0	-7.14991683613
4	hence	0.152167822199	-7.15695636462
4	associated	0.152167822199	-7.16239749736
1	sake	0.0	-7.16317239085
1	communication	0.0	-7.16472037877
27	data	0.361770438003	-7.16472037877
1	numerous	0.0	-7.16549347506
1	guide	0.0	-7.16626597413
1	driven	0.0	-7.16780918432
1	closer	0.0	-7.16935001667
2	william	0.0760839110995	-7.17088847851
1	focus	0.0	-7.17242457712
1	height	0.0	-7.17242457712
2	media	0.0760839110995	-7.17395831976
1	1990	0.0	-7.17548971362
1	accurate	0.0	-7.17701876591
4	rain	0.152167822199	-7.17701876591
1	key	0.0	-7.1777824162
1	significance	0.0	-7.1793079695
2	gas	0.0760839110995	-7.18083119904
1	strategy	0.0	-7.18311170174
1	definitely	0.0	-7.18387071506
6	extreme	0.1966740571	-7.18387071506
3	standard	0.120590146001	-7.18916773842
1	added	0.0	-7.19218205871
1	comment	0.0	-7.19218205871
1	object	0.0	-7.19218205871
2	meaning	0.0760839110995	-7.1936858184
1	mention	0.0	-7.1944368511
1	exist	0.0	-7.1974353541
6	heat	0.1966740571	-7.1974353541
1	noise	0.0	-7.1974353541
1	ii	0.0	-7.1981835771
3	criticism	0.120590146001	-7.19967834569
1	review	0.0	-7.19967834569
1	discovered	0.0	-7.20042489294
2	techniques	0.0760839110995	-7.20042489294
2	require	0.0760839110995	-7.20117088328
5	reported	0.176661370751	-7.20637729147
1	link	0.0	-7.2093402566
8	discussed	0.228251733299	-7.21007962817
1	connection	0.0	-7.21081845347
12	distribution	0.2727579682	-7.21450441415
1	principles	0.0	-7.21450441415
1	science	0.0	-7.2174434317
2	transport	0.0760839110995	-7.2181768384
1	check	0.0	-7.21890970762
1	happening	0.0	-7.21964204013
1	stronger	0.0	-7.21964204013
2	unknown	0.0760839110995	-7.21964204013
8	applied	0.228251733299	-7.22110509818
3	states	0.120590146001	-7.22183582529
1	fast	0.0	-7.22256601882
1	chose	0.0	-7.22838845157
14	western	0.289678453414	-7.22983877815
1	developments	0.0	-7.23056315341
1	sections	0.0	-7.23056315341
1	catch	0.0	-7.23201033166
1	efficient	0.0	-7.23417717975
2	determined	0.0760839110995	-7.23777819192
2	volume	0.0760839110995	-7.23777819192
2	absolute	0.0760839110995	-7.24064969426
26	wind	0.357627837644	-7.24279792279
1	measure	0.0	-7.24351297467
1	gain	0.0	-7.24565506759
1	article	0.0	-7.24850407237
1	network	0.0	-7.24850407237
2	extensive	0.0760839110995	-7.25629723969
1	sensitive	0.0	-7.25629723969
1	spot	0.0	-7.25629723969
1	briefly	0.0	-7.25770767716
1	failed	0.0	-7.2584121506
7	records	0.213594542315	-7.2584121506
6	affect	0.1966740571	-7.26473017793
4	weak	0.152167822199	-7.27447955877
3	bound	0.120590146001	-7.27517231945
2	requires	0.0760839110995	-7.27931883541
1	mentioned	0.0	-7.28000825288
1	bar	0.0	-7.28069719538
2	green	0.0760839110995	-7.28207365809
1	rates	0.0	-7.28344822876
8	studies	0.228251733299	-7.2861917147
4	differences	0.152167822199	-7.28687641175
1	conference	0.0	-7.28756064031
1	unlike	0.0	-7.28756064031
2	double	0.0760839110995	-7.28961052145
17	potential	0.310990159436	-7.29097477814
5	dry	0.176661370751	-7.29165620917
1	supported	0.0	-7.29165620917
1	demands	0.0	-7.29233717617
1	published	0.0	-7.29301767977
6	region	0.1966740571	-7.29573507275
1	crucial	0.0	-7.29709100516
2	involving	0.0760839110995	-7.29912146271
7	damage	0.213594542315	-7.29979736676
2	manage	0.0760839110995	-7.30047281427
4	factors	0.152167822199	-7.30114780586
2	severe	0.0760839110995	-7.30317005124
1	association	0.0	-7.30384322528
5	upper	0.176661370751	-7.31322038709
1	grow	0.0	-7.31455283232
3	reports	0.120590146001	-7.31721240836
1	whenever	0.0	-7.32052696227
2	bottom	0.0760839110995	-7.32184971379
1	united	0.0	-7.32184971379
1	gradually	0.0	-7.322510434
1	encourage	0.0	-7.33040521184
2	computer	0.0760839110995	-7.33367639566
1	forces	0.0	-7.33953769541
1	hundreds	0.0	-7.34018683532
17	atmosphere	0.310990159436	-7.34083555412
2	sharp	0.0760839110995	-7.34083555412
4	presented	0.152167822199	-7.34148385236
3	critical	0.120590146001	-7.34277918933
3	reduced	0.120590146001	-7.34277918933
5	tend	0.176661370751	-7.34407285057
22	analysis	0.339290998827	-7.34536484042
1	consideration	0.0	-7.34665516318
3	highest	0.120590146001	-7.34665516318
1	minor	0.0	-7.34665516318
1	brings	0.0	-7.34858753093
1	surprising	0.0	-7.34923082461
2	examples	0.0760839110995	-7.35051617183
27	increase	0.361770438003	-7.35244110024
1	population	0.0	-7.35244110024
1	earth	0.0	-7.35308192052
4	affected	0.152167822199	-7.35691824236
1	contrast	0.0	-7.35755620091
6	understanding	0.1966740571	-7.35819375273
1	falling	0.0	-7.36010397299
2	included	0.0760839110995	-7.36327958696
3	50	0.120590146001	-7.36454701426
6	warm	0.1966740571	-7.36454701426
1	expression	0.0	-7.36707705988
2	reduce	0.0760839110995	-7.36770857237
5	factor	0.176661370751	-7.36833968631
1	threat	0.0	-7.36960072053
3	suggests	0.120590146001	-7.37148929521
4	cold	0.152167822199	-7.37337430991
4	weather	0.152167822199	-7.37337430991
4	winter	0.152167822199	-7.37400185935
3	aspect	0.120590146001	-7.37525577801
1	keen	0.0	-7.37713371283
2	discuss	0.0760839110995	-7.38274644974
1	naturally	0.0	-7.38274644974
1	signs	0.0	-7.38274644974
2	somewhat	0.0760839110995	-7.38336814699
3	conclusion	0.120590146001	-7.38523092307
14	past	0.289678453414	-7.38585107813
1	rise	0.0	-7.38770923908
22	surface	0.339290998827	-7.38956395368
2	compared	0.0760839110995	-7.39079852174
1	thanks	0.0	-7.39203156751
6	c	0.1966740571	-7.39449310722
7	changing	0.213594542315	-7.39756153552
1	impression	0.0	-7.40184157874
2	largest	0.0760839110995	-7.40488757562
1	typical	0.0	-7.40610338124
1	december	0.0	-7.40671073018
1	march	0.0	-7.40792432256
9	theory	0.241180292002	-7.40853056689
15	sea	0.297251516752	-7.41095187558
1	deep	0.0	-7.41155628781
2	product	0.0760839110995	-7.41216033495
2	principle	0.0760839110995	-7.41637847919
1	european	0.0	-7.41697962138
2	influence	0.0760839110995	-7.41697962138
1	growing	0.0	-7.41878088275
1	apply	0.0	-7.42057890541
1	methods	0.0	-7.42057890541
6	increasing	0.1966740571	-7.42237370099
1	ought	0.0	-7.42297125105
1	enormous	0.0	-7.42356844426
1	shape	0.0	-7.42416528104
1	placed	0.0	-7.42535788703
1	limited	0.0	-7.42595365708
2	widely	0.0760839110995	-7.42714413341
1	choose	0.0	-7.43248380792
1	14	0.0	-7.43366654017
1	rule	0.0	-7.43425738213
8	speed	0.228251733299	-7.43779512167
3	substantial	0.120590146001	-7.43838353004
1	depends	0.0	-7.43955930913
3	behaviour	0.120590146001	-7.44014668066
4	complex	0.152167822199	-7.44014668066
1	slowly	0.0	-7.44132038972
1	virtually	0.0	-7.44132038972
2	unusual	0.0760839110995	-7.44190672805
2	existence	0.0760839110995	-7.44307837435
3	aspects	0.120590146001	-7.4454175567
1	covered	0.0	-7.4454175567
1	pieces	0.0	-7.4454175567
1	impact	0.0	-7.44600149832
2	systems	0.0760839110995	-7.44775128005
3	follows	0.120590146001	-7.44949800538
1	agree	0.0	-7.45240245122
3	july	0.120590146001	-7.45356187164
3	suggest	0.120590146001	-7.45529848568
9	model	0.241180292002	-7.45760928972
1	respect	0.0	-7.45818615734
1	entire	0.0	-7.46049030583
2	strongly	0.0760839110995	-7.46049030583
1	vast	0.0	-7.46049030583
1	draw	0.0	-7.46393660447
6	test	0.1966740571	-7.46565531013
2	latter	0.0760839110995	-7.46908388492
4	nevertheless	0.152167822199	-7.4707937742
1	equal	0.0	-7.47250074474
1	annual	0.0	-7.47306908803
4	energy	0.152167822199	-7.4747721824
1	pattern	0.0	-7.4747721824
1	speaking	0.0	-7.47590596937
3	whereas	0.120590146001	-7.47590596937
3	relatively	0.120590146001	-7.47816969416
3	types	0.120590146001	-7.47929963778
3	sufficient	0.120590146001	-7.48042830607
1	capable	0.0	-7.48661331314
2	efforts	0.0760839110995	-7.48773376144
1	active	0.0	-7.48829351516
1	happened	0.0	-7.48997089883
2	bed	0.0760839110995	-7.49052940206
4	largely	0.152167822199	-7.49276030092
3	features	0.120590146001	-7.49331724886
1	middle	0.0	-7.49387388678
1	broken	0.0	-7.49554194388
3	discussion	0.120590146001	-7.49554194388
1	pass	0.0	-7.49554194388
1	sight	0.0	-7.49554194388
2	treatment	0.0760839110995	-7.4972072232
2	additional	0.0760839110995	-7.49831587077
2	countries	0.0760839110995	-7.49997654095
1	existing	0.0	-7.49997654095
1	prevent	0.0	-7.49997654095
1	risk	0.0	-7.50163445788
1	achieved	0.0	-7.5038407467
1	introduction	0.0	-7.5038407467
1	fourth	0.0	-7.50439155916
2	suitable	0.0760839110995	-7.50549227474
1	argument	0.0	-7.50714107973
1	october	0.0	-7.50988306115
1	detail	0.0	-7.51261754467
2	doubt	0.0760839110995	-7.51316354523
2	provides	0.0760839110995	-7.51370924784
2	caused	0.0760839110995	-7.51479976049
3	develop	0.120590146001	-7.51479976049
3	miles	0.120590146001	-7.51643330292
4	described	0.152167822199	-7.5175208506
2	note	0.0760839110995	-7.51806418123
1	press	0.0	-7.51969240412
1	effects	0.0	-7.52023455647
5	achieve	0.176661370751	-7.52077641506
1	wall	0.0	-7.52077641506
1	lose	0.0	-7.52402141521
1	plus	0.0	-7.52456122629
3	developed	0.120590146001	-7.52563997504
2	30	0.0760839110995	-7.52940645784
1	remain	0.0	-7.52940645784
2	condition	0.0760839110995	-7.53047999525
3	least	0.120590146001	-7.53101633208
1	david	0.0	-7.53155238141
2	scale	0.0760839110995	-7.53262361879
1	ahead	0.0	-7.53476265704
2	neither	0.0760839110995	-7.53529670244
16	north	0.304335644398	-7.53529670244
3	positive	0.120590146001	-7.53529670244
1	seeing	0.0	-7.5363639384
1	create	0.0	-7.53689712957
3	physical	0.120590146001	-7.53796265977
1	remains	0.0	-7.53849499941
2	produced	0.0760839110995	-7.54168309988
1	length	0.0	-7.54327334671
1	lives	0.0	-7.54538974961
1	elsewhere	0.0	-7.54697411752
2	unlikely	0.0760839110995	-7.54697411752
3	received	0.120590146001	-7.54855597917
1	finding	0.0	-7.55013534249
2	south	0.0760839110995	-7.55223728756
2	leading	0.0760839110995	-7.55276208421
1	7	0.0	-7.5532866056
1	progress	0.0	-7.55433482373
9	cause	0.241180292002	-7.55590509361
1	begin	0.0	-7.55747290161
4	individual	0.152167822199	-7.55799495853
7	environment	0.213594542315	-7.56060116277
1	becomes	0.0	-7.56320059236
1	15	0.0	-7.56475701291
1	presence	0.0	-7.56475701291
1	speak	0.0	-7.56631101477
1	prove	0.0	-7.56734567601
2	longer	0.0760839110995	-7.56786260546
2	statement	0.0760839110995	-7.56786260546
3	june	0.120590146001	-7.57044325206
35	activity	0.390255913065	-7.57198844938
1	closely	0.0	-7.57198844938
9	shows	0.241180292002	-7.57198844938
1	weight	0.0	-7.57507169951
2	deal	0.0760839110995	-7.57558465156
2	opinion	0.0760839110995	-7.57558465156
2	6	0.0760839110995	-7.57660976697
1	specific	0.0	-7.57712193088
3	levels	0.120590146001	-7.57814547242
1	background	0.0	-7.5791679674
1	careful	0.0	-7.5791679674
2	powerful	0.0760839110995	-7.58477307761
1	actual	0.0	-7.58629630715
4	starting	0.152167822199	-7.58832367734
7	appears	0.213594542315	-7.58984151218
3	due	0.120590146001	-7.59085212369
6	total	0.1966740571	-7.59236612852
1	international	0.0	-7.59488438722
7	study	0.213594542315	-7.59488438722
3	per	0.120590146001	-7.59588991772
1	12	0.0	-7.59639230406
2	significant	0.0760839110995	-7.59789795052
7	independent	0.213594542315	-7.59839932932
2	current	0.0760839110995	-7.59990195921
1	happens	0.0	-7.60140233458
4	strength	0.152167822199	-7.60190195988
1	extent	0.0	-7.60240133567
3	larger	0.120590146001	-7.60240133567
3	date	0.120590146001	-7.60489448081
1	trade	0.0	-7.60887062919
2	explain	0.0760839110995	-7.60936653795
1	top	0.0	-7.61035761831
1	concern	0.0	-7.61332497954
1	along	0.0	-7.61381868481
1	land	0.0	-7.61480536471
1	activities	0.0	-7.61579107204
1	possibility	0.0	-7.6167758087
11	thus	0.263207087727	-7.61726781363
2	variety	0.0760839110995	-7.61972421378
3	europe	0.120590146001	-7.62070508684
5	hope	0.176661370751	-7.62168499872
1	essential	0.0	-7.62608275807
3	considered	0.120590146001	-7.62657020629
5	below	0.176661370751	-7.62851762658
1	ability	0.0	-7.63046126178
2	smaller	0.0760839110995	-7.63046126178
1	eye	0.0	-7.63191651307
1	keeping	0.0	-7.6328855054
1	fairly	0.0	-7.63482067775
5	relationship	0.176661370751	-7.64156444126
1	proper	0.0	-7.64204440287
6	5	0.1966740571	-7.64587582518
2	research	0.0760839110995	-7.64683139143
10	results	0.25274528185	-7.64683139143
1	eyes	0.0	-7.64873978896
1	appear	0.0	-7.6511201757
1	source	0.0	-7.65254569269
8	response	0.228251733299	-7.6530204138
1	report	0.0	-7.65349490966
1	direct	0.0	-7.65444322647
1	act	0.0	-7.65539064483
4	twice	0.152167822199	-7.65633716643
1	movement	0.0	-7.65869955827
1	alone	0.0	-7.65917136767
2	showing	0.0760839110995	-7.65917136767
2	entirely	0.0760839110995	-7.6624678152
3	appropriate	0.120590146001	-7.6638772587
2	basic	0.0760839110995	-7.66481578529
2	separate	0.0760839110995	-7.66528471847
5	lead	0.176661370751	-7.66622192566
1	circumstances	0.0	-7.66669020008
1	community	0.0	-7.66762609158
4	produce	0.152167822199	-7.67136092319
1	instead	0.0	-7.67368812927
5	4	0.176661370751	-7.67415292128
7	present	0.213594542315	-7.67508185772
2	impossible	0.0760839110995	-7.67647364639
1	drawn	0.0	-7.67786350068
2	offer	0.0760839110995	-7.6787889982
2	normally	0.0760839110995	-7.67971363997
1	trouble	0.0	-7.68017564044
1	becoming	0.0	-7.68109900154
1	extra	0.0	-7.68156036256
9	events	0.241180292002	-7.68340368105
4	approach	0.152167822199	-7.68478394352
1	modern	0.0	-7.68799716639
3	10	0.120590146001	-7.68891333686
1	beginning	0.0	-7.69484807238
3	expected	0.120590146001	-7.69484807238
3	useful	0.120590146001	-7.69530313496
16	record	0.304335644398	-7.69712131728
2	3	0.0760839110995	-7.69802917027
2	rate	0.0760839110995	-7.70029520342
3	example	0.120590146001	-7.70120018086
1	former	0.0	-7.70300768248
1	couple	0.0	-7.70481192293
5	event	0.176661370751	-7.70481192293
4	expect	0.152167822199	-7.70481192293
2	slightly	0.0760839110995	-7.70796153184
3	lack	0.120590146001	-7.70841066726
2	figures	0.0760839110995	-7.70930833339
2	effort	0.0760839110995	-7.70975686445
1	figure	0.0	-7.7106533235
3	lower	0.120590146001	-7.71154897963
1	hold	0.0	-7.71824095196
2	news	0.0760839110995	-7.71824095196
1	highly	0.0	-7.71957398926
2	term	0.0760839110995	-7.7204616946
9	conditions	0.241180292002	-7.72090525194
1	summer	0.0	-7.72090525194
1	obvious	0.0	-7.72267751647
1	story	0.0	-7.72444664563
3	issue	0.120590146001	-7.72488843932
3	responsible	0.120590146001	-7.72488843932
1	showed	0.0	-7.72577144159
8	pressure	0.228251733299	-7.72665366485
2	account	0.0760839110995	-7.73061406606
3	groups	0.120590146001	-7.73149202925
2	play	0.0760839110995	-7.73149202925
1	call	0.0	-7.73193072195
4	field	0.152167822199	-7.73368357078
5	mean	0.176661370751	-7.73935920269
4	points	0.152167822199	-7.74240202182
1	follow	0.0	-7.74326970083
2	seem	0.0760839110995	-7.74326970083
2	practice	0.0760839110995	-7.74630066223
3	2	0.120590146001	-7.74716496652
1	knowledge	0.0	-7.74889133726
1	future	0.0	-7.75018416226
1	black	0.0	-7.75061473277
10	changes	0.25274528185	-7.75104511797
1	close	0.0	-7.75190533308
2	near	0.0760839110995	-7.75276480885
2	possibly	0.0760839110995	-7.7557671701
2	role	0.0760839110995	-7.7557671701
1	following	0.0	-7.75790620835
1	places	0.0	-7.7596141507
3	cases	0.120590146001	-7.76217060714
2	subject	0.0760839110995	-7.76259604854
1	ones	0.0	-7.76684053709
1	aware	0.0	-7.76853330093
1	run	0.0	-7.76853330093
4	low	0.152167822199	-7.769800996
5	evidence	0.176661370751	-7.77106708607
2	nor	0.0760839110995	-7.77233157517
3	natural	0.120590146001	-7.77359446736
2	wide	0.0760839110995	-7.77401507725
2	basis	0.0760839110995	-7.77653502819
1	greater	0.0	-7.77653502819
1	turn	0.0	-7.77737360266
6	1	0.1966740571	-7.78113850985
2	quality	0.0760839110995	-7.78155595924
1	yes	0.0	-7.78280726284
4	concerned	0.152167822199	-7.78364059622
1	details	0.0	-7.78613643778
1	understand	0.0	-7.78613643778
1	worth	0.0	-7.78738202648
5	air	0.176661370751	-7.78862606563
2	completely	0.0760839110995	-7.78945456609
4	size	0.152167822199	-7.79110951061
2	history	0.0760839110995	-7.79276172082
1	easily	0.0	-7.79317434719
1	hard	0.0	-7.79358680337
12	series	0.2727579682	-7.79441120573
2	normal	0.0760839110995	-7.795234929
3	believe	0.120590146001	-7.79605797432
4	development	0.152167822199	-7.80098207126
2	leaving	0.0760839110995	-7.80302664363
8	higher	0.228251733299	-7.80465929706
1	earlier	0.0	-7.80628928927
1	face	0.0	-7.80832305039
2	shown	0.0760839110995	-7.81075811653
1	month	0.0	-7.81116338503
1	exactly	0.0	-7.81601383916
2	otherwise	0.0760839110995	-7.81681996576
2	range	0.0760839110995	-7.8188324438
3	ask	0.120590146001	-7.82284529028
15	water	0.297251516752	-7.82564473222
2	reasons	0.0760839110995	-7.82604401352
1	forward	0.0	-7.82763954637
2	central	0.0760839110995	-7.82803803213
5	value	0.176661370751	-7.82883452759
1	difference	0.0	-7.83042561782
1	poor	0.0	-7.83201418051
8	nature	0.228251733299	-7.83280751652
2	terms	0.0760839110995	-7.83280751652
6	previous	0.1966740571	-7.83320394864
4	parts	0.152167822199	-7.83557924667
16	recent	0.304335644398	-7.83636976055
7	amount	0.213594542315	-7.83676478326
1	complete	0.0	-7.83794891603
1	process	0.0	-7.83834331556
4	therefore	0.152167822199	-7.84031298332
1	move	0.0	-7.84267147498
3	general	0.120590146001	-7.84345640438
5	based	0.176661370751	-7.84698098214
5	above	0.176661370751	-7.85088266481
5	attention	0.176661370751	-7.85088266481
1	control	0.0	-7.85088266481
2	british	0.0760839110995	-7.8570938649
3	clearly	0.120590146001	-7.85979918056
2	nearly	0.0760839110995	-7.86018505747
1	upon	0.0	-7.86057078554
2	provide	0.0760839110995	-7.86211221166
2	easy	0.0760839110995	-7.86326672401
2	finally	0.0760839110995	-7.86863689418
1	personal	0.0	-7.86940171258
3	unless	0.120590146001	-7.87054784451
1	common	0.0	-7.87169266432
4	simple	0.152167822199	-7.87511928104
3	recently	0.120590146001	-7.8758791595
2	tell	0.0760839110995	-7.87663846098
1	saying	0.0	-7.87739718635
2	matter	0.0760839110995	-7.87777633328
2	sure	0.0760839110995	-7.8796699146
2	among	0.0760839110995	-7.88231491898
3	whole	0.120590146001	-7.88231491898
1	experience	0.0	-7.88306935131
1	usually	0.0	-7.88758403166
9	paper	0.241180292002	-7.88870952418
3	period	0.120590146001	-7.88908440704
1	major	0.0	-7.89133075766
5	state	0.176661370751	-7.89207842125
3	level	0.120590146001	-7.89580837708
1	left	0.0	-7.89692465627
3	indeed	0.120590146001	-7.90433484209
2	though	0.0760839110995	-7.90765159471
5	necessary	0.176661370751	-7.90801944463
1	age	0.0	-7.90838715929
4	show	0.152167822199	-7.90912218321
1	job	0.0	-7.91242312147
5	effect	0.176661370751	-7.91388671486
2	stage	0.0760839110995	-7.91425227874
2	set	0.0760839110995	-7.91461770904
2	soon	0.0760839110995	-7.91571319938
2	especially	0.0760839110995	-7.9160780963
1	office	0.0	-7.91862865334
5	power	0.176661370751	-7.91862865334
2	ways	0.0760839110995	-7.91935619066
1	simply	0.0	-7.91971976092
4	result	0.152167822199	-7.92008319905
1	order	0.0	-7.92262357422
2	similar	0.0760839110995	-7.92804560087
3	whose	0.120590146001	-7.92912648731
4	means	0.152167822199	-7.92984642974
3	single	0.120590146001	-7.93056585423
1	become	0.0	-7.93164402145
1	right	0.0	-7.93236215434
1	particular	0.0	-7.93343838763
42	change	0.410268599415	-7.93558738559
5	early	0.176661370751	-7.93594510335
1	short	0.0	-7.93773177526
2	behind	0.0760839110995	-7.94093976233
6	strong	0.1966740571	-7.94129557091
3	around	0.120590146001	-7.94449216393
5	likely	0.176661370751	-7.94732502702
1	eight	0.0	-7.94873845481
1	including	0.0	-7.95331834656
1	rather	0.0	-7.95402108728
2	kind	0.0760839110995	-7.95507427326
4	true	0.152167822199	-7.95752740223
1	ten	0.0	-7.95822719232
6	available	0.1966740571	-7.95997452808
5	form	0.176661370751	-7.96658669764
1	information	0.0	-7.97039490719
1	need	0.0	-7.97349996402
8	system	0.228251733299	-7.97349996402
1	seven	0.0	-7.97625194375
5	use	0.176661370751	-7.98104975967
1	seems	0.0	-7.9841219587
3	once	0.120590146001	-7.98548435673
1	free	0.0	-7.98752447985
4	ago	0.152167822199	-7.98786409609
3	clear	0.120590146001	-7.98989937494
6	found	0.1966740571	-7.98989937494
2	makes	0.0760839110995	-7.99125392984
3	several	0.120590146001	-7.99125392984
4	question	0.152167822199	-7.99429498642
8	known	0.228251733299	-7.99463231143
1	reason	0.0	-7.99833539595
2	line	0.0760839110995	-7.9996785795
1	across	0.0	-8.00034949532
4	particularly	0.152167822199	-8.00302866638
7	little	0.213594542315	-8.00469951055
1	third	0.0	-8.00836557031
1	comes	0.0	-8.01334318139
8	using	0.228251733299	-8.01532730902
1	themselves	0.0	-8.01730750769
4	actually	0.152167822199	-8.01895468316
2	certain	0.0760839110995	-8.01895468316
1	either	0.0	-8.0205991499
3	itself	0.120590146001	-8.02092771898
3	real	0.120590146001	-8.02125618014
1	name	0.0	-8.02224091681
3	look	0.120590146001	-8.0228968696
2	months	0.0760839110995	-8.02551638649
1	think	0.0	-8.02682357622
13	area	0.281543926544	-8.02878116249
13	few	0.281543926544	-8.03008409427
4	further	0.152167822199	-8.03008409427
3	main	0.120590146001	-8.03138533063
6	since	0.1966740571	-8.03754318512
2	almost	0.0760839110995	-8.03980234374
3	group	0.120590146001	-8.04141290939
5	less	0.176661370751	-8.04462627977
3	difficult	0.120590146001	-8.04526771661
7	enough	0.213594542315	-8.04526771661
1	anything	0.0	-8.04686951096
9	however	0.241180292002	-8.04718956217
4	hand	0.152167822199	-8.05102220819
17	large	0.310990159436	-8.05134093329
7	perhaps	0.213594542315	-8.05737748856
4	problem	0.152167822199	-8.05737748856
6	better	0.1966740571	-8.05832730658
8	know	0.228251733299	-8.05864371222
4	probably	0.152167822199	-8.06274790109
5	far	0.176661370751	-8.06965530689
1	later	0.0	-8.07309119969
1	really	0.0	-8.0752715463
1	case	0.0	-8.07744714933
4	long	0.152167822199	-8.08178420694
6	possible	0.1966740571	-8.08301991917
19	high	0.32319893929	-8.08487062914
2	best	0.0760839110995	-8.08579470128
1	say	0.0	-8.09040229659
4	world	0.152167822199	-8.0934622745
3	taking	0.120590146001	-8.0946836487
6	used	0.1966740571	-8.0946836487
6	my	0.1966740571	-8.09620827165
1	things	0.0	-8.0965129175
7	although	0.213594542315	-8.0992505618
6	during	0.1966740571	-8.10409905614
2	life	0.0760839110995	-8.10409905614
1	your	0.0	-8.10500553755
10	within	0.25274528185	-8.10681603895
7	times	0.213594542315	-8.10772006191
6	important	0.1966740571	-8.10892415598
7	point	0.213594542315	-8.11042723758
8	whether	0.228251733299	-8.11402544236
8	yet	0.228251733299	-8.11611843161
1	full	0.0	-8.11641707279
2	why	0.0760839110995	-8.11761074647
1	something	0.0	-8.11850506759
2	quite	0.0760839110995	-8.11880299698
1	second	0.0	-8.11910083764
5	small	0.176661370751	-8.12029131397
1	making	0.0	-8.12474302039
1	come	0.0	-8.12592680271
2	great	0.0760839110995	-8.12829017161
7	both	0.213594542315	-8.13182478501
1	taken	0.0	-8.13182478501
5	fact	0.176661370751	-8.1324126745
2	able	0.0760839110995	-8.13358741766
1	already	0.0	-8.13534694891
2	while	0.0760839110995	-8.13622555491
6	before	0.1966740571	-8.14409846334
2	get	0.0760839110995	-8.14583961294
4	us	0.152167822199	-8.1467090522
3	done	0.120590146001	-8.14873480894
1	place	0.0	-8.14873480894
5	going	0.176661370751	-8.14960173574
7	each	0.213594542315	-8.15190987294
10	given	0.25274528185	-8.15190987294
22	such	0.339290998827	-8.15450017515
8	work	0.228251733299	-8.15507488781
27	number	0.361770438003	-8.16223106548
3	without	0.120590146001	-8.16451026875
10	most	0.25274528185	-8.16507925881
18	different	0.317264203101	-8.1656479253
6	might	0.1966740571	-8.16678428906
5	under	0.176661370751	-8.16905314993
5	year	0.176661370751	-8.17188200613
13	here	0.281543926544	-8.17216445211
2	every	0.0760839110995	-8.17329343897
5	give	0.176661370751	-8.17470288247
5	made	0.176661370751	-8.17723488551
11	its	0.263207087727	-8.180880942
6	end	0.1966740571	-8.18200013629
1	again	0.0	-8.18451375303
6	even	0.1966740571	-8.18674278711
26	over	0.357627837644	-8.18924452574
1	four	0.0	-8.18979961873
25	may	0.353322741502	-8.19090888118
10	must	0.25274528185	-8.19174002128
5	part	0.176661370751	-8.19367666596
1	our	0.0	-8.19422930482
6	see	0.1966740571	-8.19588539131
5	back	0.176661370751	-8.19698792726
6	after	0.1966740571	-8.1986394553
8	too	0.228251733299	-8.20138595524
17	between	0.310990159436	-8.20193435119
1	did	0.0	-8.20767442436
8	does	0.228251733299	-8.2082193835
2	people	0.0760839110995	-8.20930841165
3	like	0.120590146001	-8.21093973338
7	last	0.213594542315	-8.21500643276
2	you	0.0760839110995	-8.21554741195
18	years	0.317264203101	-8.2187871556
8	much	0.228251733299	-8.21986474191
8	another	0.228251733299	-8.22013395715
6	where	0.1966740571	-8.22040309993
8	through	0.228251733299	-8.2225536384
10	same	0.25274528185	-8.22282213081
14	because	0.289678453414	-8.22443157322
19	new	0.32319893929	-8.22469956197
3	good	0.120590146001	-8.22684089041
3	make	0.120590146001	-8.22684089041
13	i	0.281543926544	-8.22897764336
11	many	0.263207087727	-8.23004431013
10	being	0.25274528185	-8.23190824356
31	also	0.376934631649	-8.23483028044
8	how	0.228251733299	-8.23509549726
10	well	0.25274528185	-8.24012129808
5	those	0.176661370751	-8.24222989137
13	than	0.281543926544	-8.24328252305
8	should	0.228251733299	-8.24380842367
3	way	0.120590146001	-8.24564690087
4	three	0.152167822199	-8.24748200429
2	he	0.0760839110995	-8.24774388723
19	very	0.32319893929	-8.24774388723
3	had	0.120590146001	-8.24957515
4	just	0.152167822199	-8.25400859056
21	these	0.334184688316	-8.25997565977
12	do	0.2727579682	-8.2607513547
12	only	0.2727579682	-8.26126815058
11	could	0.263207087727	-8.26230094179
1	who	0.0	-8.26255897301
11	then	0.263207087727	-8.26359043262
5	first	0.176661370751	-8.26410576373
33	more	0.383797233728	-8.26513562994
20	were	0.32882919295	-8.26513562994
8	when	0.228251733299	-8.26616443661
9	any	0.241180292002	-8.26693534761
24	their	0.348841879299	-8.26796230534
12	into	0.2727579682	-8.26924452118
28	about	0.365762364514	-8.27052509506
13	other	0.281543926544	-8.27180403115
4	up	0.152167822199	-8.27205962221
15	no	0.297251516752	-8.2733365985
7	out	0.213594542315	-8.2735917982
1	them	0.0	-8.27435700676
42	we	0.410268599415	-8.27435700676
23	will	0.344170285718	-8.27563105458
11	so	0.263207087727	-8.27614021956
18	time	0.317264203101	-8.27715777243
25	would	0.353322741502	-8.27766616085
27	has	0.361770438003	-8.28096440055
16	two	0.304335644398	-8.28121766129
28	which	0.365762364514	-8.28197705887
25	some	0.353322741502	-8.28248300373
10	what	0.25274528185	-8.2827358802
27	one	0.361770438003	-8.28374674711
61	as	0.451233692346	-8.28425179762
31	been	0.376934631649	-8.28828304521
7	now	0.213594542315	-8.28828304521
48	by	0.424925790399	-8.28878581043
16	if	0.304335644398	-8.28979058318
62	there	0.453018542749	-8.2927988582
50	an	0.429406652601	-8.29579811064
28	was	0.365762364514	-8.29579811064
44	from	0.415374909926	-8.29878839445
16	they	0.304335644398	-8.29878839445
27	or	0.361770438003	-8.30028018985
12	all	0.2727579682	-8.30176976312
29	can	0.369614194156	-8.30176976312
42	have	0.410268599415	-8.30176976312
147	that	0.54777923063	-8.30573114488
41	but	0.40762351043	-8.30795254527
29	at	0.369614194156	-8.30869191684
39	not	0.402134072545	-8.30918452769
67	are	0.461531790688	-8.31090675717
70	this	0.466339824165	-8.31238059679
68	be	0.463157981635	-8.31434234337
66	with	0.459881144828	-8.31458729132
49	on	0.427189084629	-8.31507700729
169	is	0.563087853088	-8.3184983205
44	it	0.415374909926	-8.3184983205
67	for	0.461531790688	-8.32020459758
374	of	0.650281158263	-8.32117830749
232	in	0.597865927455	-8.3214215869
216	a	0.590022171301	-8.32239411311
185	to	0.573016957498	-8.32288002177
188	and	0.574782666584	-8.32409376145
692	the	0.717823415328	-8.32409376145
